2 Supervised Learning: Regression tasks – Introduction to Machine Learning and AI for Health and Sciences
…
For logistic regression: report odds ratios with 95% CIs and evaluate ROC/AUC and calibration.

We start usually by understanding if we have any bits of the data that may be missing. Using this code below we can see that our dataset is indeed complete. We will dedicate a section on missing data in future chapters. In the case of our motivational example we have a complete dataset.

type_map <- tibble::tibble(
  variable    = names(trial_ct),
  class       = sapply(trial_ct, \(x) paste(class(x), collapse = "/")),
  n_missing   = sapply(trial_ct, \(x) sum(is.na(x))),
  pct_missing = round(100 * sapply(trial_ct, \(x) mean(is.na(x))), 2),
  n_unique    = sapply(trial_ct, \(x) dplyr::n_distinct(x)),
  example     = sapply(trial_ct, \(x) paste(utils::head(unique(x), 3), collapse = ", "))
)
type_map %>% arrange(desc(class))

# A tibble: 2,010 × 6
   variable          class   n_missing pct_missing n_unique example             
   <chr>             <chr>       <int>       <dbl>    <int> <chr>               
 1 dose_intensity    numeric         0           0      302 1.085, 0, 1.007     
 2 patient_age       numeric         0           0       61 81, 61, 74          
 3 baseline_tumor_mm numeric         0           0      912 52.2, 43.3, 43.2    
 4 post_tumor_mm     numeric         0           0      869 25.8, 43.3, 43.2    
 5 response_percent  numeric         0           0      665 50.6, 0, 4.2        
 6 gene_01           numeric         0           0    10000 11.0132382528657, 9…
 7 gene_02           numeric         0           0    10000 9.31355524977464, 7…
 8 gene_03           numeric         0           0    10000 9.51020822690023, 8…
 9 gene_04           numeric         0           0    10000 10.272629360758, 9.…
10 gene_05           numeric         0           0    10000 7.30636755315514, 8…
# ℹ 2,000 more rows
…
and get the coefficients from the models

# === Coefficient table with Wald-style CIs (robust to confint() failures) =====
coef_tbl_logit <- broom::tidy(mod_logit) %>%
  mutate(
    conf.low  = estimate - qnorm(0.975) * std.error,
    conf.high = estimate + qnorm(0.975) * std.error
  ) %>%
  arrange(estimate)

print(coef_tbl_logit, n = min(25, nrow(coef_tbl_logit)))

# A tibble: 107 × 7
   term              estimate std.error statistic  p.value conf.low conf.high
   <chr>                <dbl>     <dbl>     <dbl>    <dbl>    <dbl>     <dbl>
 1 performance_score   -0.676    0.0767    -8.82  1.13e-18   -0.826  -0.526  
 2 gene_1379           -0.338    0.179     -1.89  5.89e- 2   -0.688   0.0126 
 3 gene_1733           -0.335    0.170     -1.97  4.87e- 2   -0.668  -0.00196
 4 gene_1598           -0.305    0.174     -1.75  7.93e- 2   -0.646   0.0357 
 5 gene_426            -0.283    0.174     -1.63  1.04e- 1   -0.625   0.0579 
 6 gene_1820           -0.280    0.175     -1.60  1.09e- 1   -0.622   0.0627 
 7 gene_1760           -0.257    0.180     -1.43  1.54e- 1   -0.610   0.0964 
 8 gene_719            -0.255    0.177     -1.45  1.48e- 1   -0.601   0.0906 
 9 gene_170            -0.246    0.174     -1.42  1.57e- 1   -0.587   0.0945 
10 gene_655            -0.237    0.177     -1.34  1.81e- 1   -0.584   0.110  
11 gene_934            -0.230    0.174     -1.32  1.87e- 1   -0.572   0.112  
12 gene_1909           -0.225    0.173     -1.30  1.94e- 1   -0.565   0.115  
13 gene_819            -0.225    0.175     -1.29  1.99e- 1   -0.568   0.118  
14 gene_1687           -0.208    0.177     -1.18  2.39e- 1   -0.555   0.138  
15 gene_1925           -0.206    0.174     -1.19  2.34e- 1   -0.547   0.134  
16 gene_1291           -0.199    0.174     -1.15  2.52e- 1   -0.540   0.142  
17 gene_289            -0.198    0.176     -1.13  2.60e- 1   -0.543   0.147  
18 gene_821            -0.183    0.175     -1.05  2.96e- 1   -0.526   0.160  
19 gene_1099           -0.182    0.173     -1.05  2.93e- 1   -0.522   0.157  
20 gene_577            -0.178    0.177     -1.00  3.16e- 1   -0.525   0.170  
21 gene_1940           -0.176    0.178     -0.988 3.23e- 1   -0.524   0.173  
22 gene_50             -0.172    0.178     -0.969 3.33e- 1   -0.521   0.176  
23 gene_1740           -0.157    0.174     -0.900 3.68e- 1   -0.497   0.184  
24 gene_41             -0.150    0.174     -0.862 3.89e- 1   -0.492   0.191  
25 gene_1946           -0.148    0.176     -0.842 4.00e- 1   -0.493   0.197  
# ℹ 82 more rows
…
# B) Print all columns without truncation
print(or_tbl, n = 12, width = Inf)

# A tibble: 106 × 8
   term              estimate std.error statistic  p.value      OR  OR_low
   <chr>                <dbl>     <dbl>     <dbl>    <dbl>   <dbl>   <dbl>
 1 treatmentchemo       6.78     0.658      10.3  6.35e-25 882.    243.   
 2 dose_intensity       3.74     0.595       6.29 3.14e-10  42.2    13.1  
 3 tumor_gradeG3        1.24     0.143       8.68 4.08e-18   3.47    2.62 
 4 performance_score   -0.676    0.0767     -8.82 1.13e-18   0.509   0.438
 5 gene_1319            0.450    0.175       2.57 1.03e- 2   1.57    1.11 
 6 gene_1039            0.435    0.178       2.44 1.45e- 2   1.55    1.09 
 7 tumor_gradeG2        0.402    0.124       3.25 1.14e- 3   1.50    1.17 
 8 gene_1302            0.355    0.177       2.01 4.48e- 2   1.43    1.01 
 9 gene_1379           -0.338    0.179      -1.89 5.89e- 2   0.714   0.503
10 gene_1733           -0.335    0.170      -1.97 4.87e- 2   0.715   0.513
11 gene_1598           -0.305    0.174      -1.75 7.93e- 2   0.737   0.524
12 gene_58              0.292    0.177       1.65 9.93e- 2   1.34    0.946
    OR_high
      <dbl>
 1 3202.   
 2  135.   
 3    4.59 
 4    0.591
 5    2.21 
 6    2.19 
 7    1.91 
 8    2.02 
 9    1.01 
10    0.998
11    1.04 
12    1.90 
# ℹ 94 more rows
…
